<?xml version="1.0" encoding="utf-8"?>
<!-- Generator: Adobe Illustrator 22.0.1, SVG Export Plug-In . SVG Version: 6.00 Build 0)  -->
<svg version="1.1" id="Ebene_1" xmlns="http://www.w3.org/2000/svg" xmlns:xlink="http://www.w3.org/1999/xlink" x="0px" y="0px"
	 viewBox="0 0 1921.7 1080" style="enable-background:new 0 0 1921.7 1080;" xml:space="preserve">
<style type="text/css">
	.st0{fill:url(#SVGID_1_);}
	.st1{fill:url(#SVGID_2_);}
	.st2{display:none;opacity:0.54;fill:url(#SVGID_3_);}
	.st3{opacity:0.13;fill:url(#SVGID_4_);}
	.st4{opacity:0.1;fill:url(#SVGID_5_);}
	.st5{opacity:0.15;fill:url(#SVGID_6_);}
</style>
<g id="Hintergrund_x5F_neu_1_">
	<linearGradient id="SVGID_1_" gradientUnits="userSpaceOnUse" x1="0" y1="540" x2="1920" y2="540">
		<stop  offset="0" style="stop-color:#00FFFF"/>
		<stop  offset="1" style="stop-color:#B400FF"/>
	</linearGradient>
	<rect class="st0" width="1920" height="1080"/>
	<linearGradient id="SVGID_2_" gradientUnits="userSpaceOnUse" x1="960.8257" y1="99" x2="960.8257" y2="1307.0428">
		<stop  offset="0" style="stop-color:#00BEFF"/>
		<stop  offset="0.2298" style="stop-color:#0EADFF"/>
		<stop  offset="1" style="stop-color:#792EFF"/>
	</linearGradient>
	<rect x="0.8" class="st1" width="1920" height="1080"/>
	<linearGradient id="SVGID_3_" gradientUnits="userSpaceOnUse" x1="787.5887" y1="195.1688" x2="1564.3949" y2="1741.4146">
		<stop  offset="0" style="stop-color:#00BEFF"/>
		<stop  offset="1" style="stop-color:#FF00FF"/>
	</linearGradient>
	<rect x="0.8" class="st2" width="1920" height="1080"/>
	<linearGradient id="SVGID_4_" gradientUnits="userSpaceOnUse" x1="1398.3528" y1="1136.1082" x2="-435.6473" y2="368.1082">
		<stop  offset="0" style="stop-color:#00BEFF"/>
		<stop  offset="1" style="stop-color:#792EFF"/>
	</linearGradient>
	<path class="st3" d="M1921.7,825.8l0,254.2H0V297.3C463.6,283.7,840.7,835.8,1921.7,825.8z"/>
	<linearGradient id="SVGID_5_" gradientUnits="userSpaceOnUse" x1="1910.8053" y1="1081.1643" x2="32.9595" y2="477.4223">
		<stop  offset="0" style="stop-color:#00BEFF"/>
		<stop  offset="1" style="stop-color:#792EFF"/>
	</linearGradient>
	<path class="st4" d="M0,456.5c0,0,274.3,216.8,547.5,290.2c554,149,987.7-289.4,1374.2-275.2c0,51.6,0,608.5,0,608.5H0L0,456.5z"/>
	<linearGradient id="SVGID_6_" gradientUnits="userSpaceOnUse" x1="57.8053" y1="496.9271" x2="1899.8053" y2="980.9271">
		<stop  offset="0" style="stop-color:#00BEFF"/>
		<stop  offset="1" style="stop-color:#792EFF"/>
	</linearGradient>
	<path class="st5" d="M0,779.7c67.1,42,177.5,112.4,301.3,124.1c760.9,71.9,1176.8-580.1,1620.4-515.4c0,17.5,0,691.6,0,691.6H0
		C0,1080,0,823.5,0,779.7z"/>
</g>
</svg>
